2nd Semester/VHDL Project 1/Ex1/simulation/qsim/Exercise_1.msim.vcd
$comment
	File created using the following command:
		vcd file Exercise_1.msim.vcd -direction
$end
$date
	Sun Apr 15 20:49:43 2018
$end
$version
	ModelSim Version 10.1d
$end
$timescale
	1ps
$end
$scope module Exercise_1_vlg_vec_tst $end
$var reg 1 ! X1 $end
$var reg 1 " X2 $end
$var reg 1 # X3 $end
$var reg 1 $ X4 $end
$var reg 1 % X5 $end
$var wire 1 & F $end
$var wire 1 ' G $end
$var wire 1 ( sampler $end
$scope module i1 $end
$var wire 1 ) gnd $end
$var wire 1 * vcc $end
$var wire 1 + unknown $end
$var tri1 1 , devclrn $end
$var tri1 1 - devpor $end
$var tri1 1 . devoe $end
$var wire 1 / X4~combout $end
$var wire 1 0 X5~combout $end
$var wire 1 1 F~0_combout $end
$var wire 1 2 X1~combout $end
$var wire 1 3 X3~combout $end
$var wire 1 4 F~1_combout $end
$var wire 1 5 F~2_combout $end
$var wire 1 6 G~0_combout $end
$var wire 1 7 X2~combout $end
$var wire 1 8 G~1_combout $end
$upscope $end
$upscope $end
$enddefinitions $end
#0
$dumpvars
0!
0"
0#
0$
0%
0&
1'
x(
0)
1*
x+
1,
1-
1.
0/
00
11
02
03
14
05
16
07
18
$end
#10000
1%
10
0(
15
1&
#20000
1$
0%
1/
00
1(
05
0&
#30000
1%
10
0(
15
01
08
05
1&
0'
0&
#40000
1#
0$
0%
13
0/
00
1(
11
18
15
1'
1&
#50000
1%
10
0(
#60000
1$
0%
1/
00
1(
06
04
08
05
0'
0&
#70000
1%
10
0(
01
#80000
1"
0#
0$
0%
17
03
0/
00
1(
14
11
16
18
1'
#90000
1%
10
0(
15
01
08
05
1&
0'
0&
#100000
1$
0%
1/
00
1(
11
18
1'
#110000
1%
10
0(
15
1&
#120000
1#
0$
0%
13
0/
00
1(
#130000
1%
10
0(
01
08
05
0'
0&
#140000
1$
0%
1/
00
1(
06
04
11
18
1'
#150000
1%
10
0(
#160000
1!
0"
0#
0$
0%
12
07
03
0/
00
1(
08
16
18
0'
1'
#170000
1%
10
0(
06
08
0'
#180000
1$
0%
1/
00
1(
16
18
1'
#190000
1%
10
0(
06
01
08
0'
#200000
1#
0$
0%
13
0/
00
1(
16
11
18
1'
#210000
1%
10
0(
06
08
0'
#220000
1$
0%
1/
00
1(
#230000
1%
10
0(
01
#240000
1"
0#
0$
0%
17
03
0/
00
1(
14
11
16
18
1'
#250000
1%
10
0(
06
15
01
08
05
1&
0'
0&
#260000
1$
0%
1/
00
1(
16
11
18
1'
#270000
1%
10
0(
06
15
08
1&
0'
#280000
1#
0$
0%
13
0/
00
1(
16
18
1'
#290000
1%
10
0(
06
01
08
05
0'
0&
#300000
1$
0%
1/
00
1(
04
11
#310000
1%
10
0(
